{
  "GenreInformation": [],
  "Items": [
    {
      "Item": {
        "affiliateUrl": "",
        "artistName": "",
        "author": "臼田 孝",
        "availability": "4",
        "booksGenreId": "001012003/001020010",
        "chirayomiUrl": "",
        "discountPrice": 0,
        "discountRate": 0,
        "hardware": "",
        "isbn": "9784065273296",
        "itemCaption": "万有引力の法則から相対性理論、量子力学まで、宇宙の成り立ちを説明する物理法則には、必ず「固有の値」＝物理定数が登場する。物理定数とは何か？なぜ、一定の値をとるのか？その値はどう決まるのか？そして、本当に「一定不変」か？宇宙の誕生と進化を司る「究極の値」のすべてー。",
        "itemPrice": 1100,
        "itemUrl": "https://books.rakuten.co.jp/rb/17019338/",
        "jan": "",
        "label": "",
        "largeImageUrl": "https://thumbnail.image.rakuten.co.jp/@0_mall/book/cabinet/3296/9784065273296_1_2.jpg?_ex=200x200",
        "limitedFlag": 0,
        "listPrice": 0,
        "mediumImageUrl": "https://thumbnail.image.rakuten.co.jp/@0_mall/book/cabinet/3296/9784065273296_1_2.jpg?_ex=120x120",
        "os": "",
        "postageFlag": 2,
        "publisherName": "講談社",
        "reviewAverage": "4.0",
        "reviewCount": 1,
        "salesDate": "2022年02月17日頃",
        "smallImageUrl": "https://thumbnail.image.rakuten.co.jp/@0_mall/book/cabinet/3296/9784065273296_1_2.jpg?_ex=64x64",
        "title": "宇宙を支配する「定数」　万有引力定数から光速、プランク定数まで"
      }
    },
    {
      "Item": {
        "affiliateUrl": "",
        "artistName": "",
        "author": "原田隆典/本橋英樹",
        "availability": "1",
        "booksGenreId": "001012010005/001012011",
        "chirayomiUrl": "",
        "discountPrice": 0,
        "discountRate": 0,
        "hardware": "",
        "isbn": "9784434294686",
        "itemCaption": "",
        "itemPrice": 2750,
        "itemUrl": "https://books.rakuten.co.jp/rb/16923898/",
        "jan": "",
        "label": "",
        "largeImageUrl": "https://thumbnail.image.rakuten.co.jp/@0_mall/book/cabinet/4686/9784434294686.jpg?_ex=200x200",
        "limitedFlag": 0,
        "listPrice": 0,
        "mediumImageUrl": "https://thumbnail.image.rakuten.co.jp/@0_mall/book/cabinet/4686/9784434294686.jpg?_ex=120x120",
        "os": "",
        "postageFlag": 2,
        "publisherName": "現代図書",
        "reviewAverage": "0.0",
        "reviewCount": 0,
        "salesDate": "2021年10月19日頃",
        "smallImageUrl": "https://thumbnail.image.rakuten.co.jp/@0_mall/book/cabinet/4686/9784434294686.jpg?_ex=64x64",
        "title": "土木環境数学2"
      }
    },
    {
      "Item": {
        "affiliateUrl": "",
        "artistName": "",
        "author": "",
        "availability": "4",
        "booksGenreId": "001015",
        "chirayomiUrl": "",
        "discountPrice": 0,
        "discountRate": 0,
        "hardware": "",
        "isbn": "9784627791695",
        "itemCaption": "",
        "itemPrice": 3520,
        "itemUrl": "https://books.rakuten.co.jp/rb/16895017/",
        "jan": "",
        "label": "",
        "largeImageUrl": "https://thumbnail.image.rakuten.co.jp/@0_mall/book/cabinet/1695/9784627791695.jpg?_ex=200x200",
        "limitedFlag": 0,
        "listPrice": 0,
        "mediumImageUrl": "https://thumbnail.image.rakuten.co.jp/@0_mall/book/cabinet/1695/9784627791695.jpg?_ex=120x120",
        "os": "",
        "postageFlag": 2,
        "publisherName": "森北出版",
        "reviewAverage": "0.0",
        "reviewCount": 0,
        "salesDate": "2021年05月01日頃",
        "smallImageUrl": "https://thumbnail.image.rakuten.co.jp/@0_mall/book/cabinet/1695/9784627791695.jpg?_ex=64x64",
        "title": "高周波領域における材料定数測定法　POD版"
      }
    },
    {
      "Item": {
        "affiliateUrl": "",
        "artistName": "",
        "author": "若原龍彦",
        "availability": "4",
        "booksGenreId": "001012002",
        "chirayomiUrl": "",
        "discountPrice": 0,
        "discountRate": 0,
        "hardware": "",
        "isbn": "9784866770420",
        "itemCaption": "円周率π、ネイピアの数ｅ、オイラーの定数γ、そして自然対数ｌｏｇ２。これらの数が描く美しくて不思議な数学の世界。",
        "itemPrice": 1980,
        "itemUrl": "https://books.rakuten.co.jp/rb/16039344/",
        "jan": "",
        "label": "",
        "largeImageUrl": "https://thumbnail.image.rakuten.co.jp/@0_mall/book/cabinet/0420/9784866770420.jpg?_ex=200x200",
        "limitedFlag": 0,
        "listPrice": 0,
        "mediumImageUrl": "https://thumbnail.image.rakuten.co.jp/@0_mall/book/cabinet/0420/9784866770420.jpg?_ex=120x120",
        "os": "",
        "postageFlag": 2,
        "publisherName": "講談社エディトリアル",
        "reviewAverage": "0.0",
        "reviewCount": 0,
        "salesDate": "2019年09月15日頃",
        "smallImageUrl": "https://thumbnail.image.rakuten.co.jp/@0_mall/book/cabinet/0420/9784866770420.jpg?_ex=64x64",
        "title": "美しい数学を描くπ、 e、 とオイラーの定数γ"
      }
    },
    {
      "Item": {
        "affiliateUrl": "",
        "artistName": "",
        "author": "樋口剛/阿部貴志",
        "availability": "1",
        "booksGenreId": "001012010001",
        "chirayomiUrl": "",
        "discountPrice": 0,
        "discountRate": 0,
        "hardware": "",
        "isbn": "9784904774533",
        "itemCaption": "",
        "itemPrice": 4070,
        "itemUrl": "https://books.rakuten.co.jp/rb/14796364/",
        "jan": "",
        "label": "",
        "largeImageUrl": "https://thumbnail.image.rakuten.co.jp/@0_mall/book/cabinet/4533/9784904774533.jpg?_ex=200x200",
        "limitedFlag": 0,
        "listPrice": 0,
        "mediumImageUrl": "https://thumbnail.image.rakuten.co.jp/@0_mall/book/cabinet/4533/9784904774533.jpg?_ex=120x120",
        "os": "",
        "postageFlag": 2,
        "publisherName": "科学情報出版",
        "reviewAverage": "5.0",
        "reviewCount": 1,
        "salesDate": "2017年03月",
        "smallImageUrl": "https://thumbnail.image.rakuten.co.jp/@0_mall/book/cabinet/4533/9784904774533.jpg?_ex=64x64",
        "title": "交流モータの原理と設計法"
      }
    }
  ],
  "carrier": 0,
  "count": 337,
  "first": 1,
  "hits": 5,
  "last": 5,
  "page": 1,
  "pageCount": 68
}
